Preceptor’s Primer for Bayesian Data Science: Using the Cardinal Virtues for Inference - 3 Data
…
aboriginal_lang_data <- collect(aboriginal_lang_db)
aboriginal_lang_data

# A tibble: 67 × 6
   category             language                 mothe…¹ most_…² most_…³ lang_…⁴
   <chr>                <chr>                      <dbl>   <dbl>   <dbl>   <dbl>
 1 Aboriginal languages Aboriginal languages, n…     590     235      30     665
 2 Aboriginal languages Algonquian languages, n…      45      10       0     120
 3 Aboriginal languages Algonquin                   1260     370      40    2480
 4 Aboriginal languages Athabaskan languages, n…      50      10       0      85
 5 Aboriginal languages Atikamekw                   6150    5465    1100    6645
 6 Aboriginal languages Babine (Wetsuwet'en)         110      20      10     210
 7 Aboriginal languages Beaver                       190      50       0     340
 8 Aboriginal languages Blackfoot                   2815    1110      85    5645
 9 Aboriginal languages Carrier                     1025     250      15    2100
10 Aboriginal languages Cayuga                        45      10      10     125
# … with 57 more rows, and abbreviated variable names ¹​mother_tongue,
#   ²​most_at_home, ³​most_at_work, ⁴​lang_known
…
